lab1-1/lab_1/fsic_fpga/rtl/user/testbench/tc/xsim_9624.backup.log
#-----------------------------------------------------------
# xsim v2022.1 (64-bit)
# SW Build 3526262 on Mon Apr 18 15:47:01 MDT 2022
# IP Build 3524634 on Mon Apr 18 20:55:01 MDT 2022
# Start of session at: Mon Feb  5 04:53:36 2024
# Process ID: 9624
# Current directory: /home/ubuntu/Advanced_SoC/lab_1/fsic_fpga/rtl/user/testbench/tc
# Command line: xsim -mode tcl -source {xsim.dir/tb_fsic_xelab/xsim_script.tcl}
# Log file: /home/ubuntu/Advanced_SoC/lab_1/fsic_fpga/rtl/user/testbench/tc/xsim.log
# Journal file: /home/ubuntu/Advanced_SoC/lab_1/fsic_fpga/rtl/user/testbench/tc/xsim.jou
# Running On: ubuntu2004, OS: Linux, CPU Frequency: 2495.998 MHz, CPU Physical cores: 2, Host memory: 10425 MB
#-----------------------------------------------------------
source xsim.dir/tb_fsic_xelab/xsim_script.tcl
# xsim {tb_fsic_xelab} -autoloadwcfg -tclbatch {log_wave.tcl}
Time resolution is 1 ps
open_wave_config /home/ubuntu/Advanced_SoC/lab_1/fsic_fpga/rtl/user/testbench/tc/tb_fsic_xelab.wcfg
WARNING: Simulation object /tb_fsic/dut/U_MPRJ_IO0/vccd1 was not found in the design.
WARNING: Simulation object /tb_fsic/dut/U_MPRJ_IO0/vccd2 was not found in the design.
WARNING: Simulation object /tb_fsic/dut/U_MPRJ_IO0/vssd1 was not found in the design.
WARNING: Simulation object /tb_fsic/dut/U_MPRJ_IO0/vssd2 was not found in the design.
WARNING: Simulation object /tb_fsic/vccd1 was not found in the design.
WARNING: Simulation object /tb_fsic/vccd2 was not found in the design.
WARNING: Simulation object /tb_fsic/vssd1 was not found in the design.
WARNING: Simulation object /tb_fsic/vssd2 was not found in the design.
WARNING: Simulation object /tb_fsic/dut/AXIS_SW0/pre_rd_ptr_reg was not found in the design.
WARNING: Simulation object /tb_fsic/dut/AXIS_SW0/as_up_tvalid_reg was not found in the design.
WARNING: Simulation object /tb_fsic/dut/AXIS_SW0/as_aa_tvalid_reg was not found in the design.
WARNING: Simulation object /tb_fsic/dut/AXIS_SW0/delaynext was not found in the design.
WARNING: Simulation object /tb_fsic/dut/AXIS_SW0/pre_m_axis was not found in the design.
WARNING: Simulation object /tb_fsic/dut/U_USER_SUBSYS0/U_USRPRJ0/reg_edgedetect_done was not found in the design.
WARNING: Simulation object /tb_fsic/dut/U_USER_SUBSYS0/U_USRPRJ0/edgedetect_done was not found in the design.
WARNING: Simulation object /tb_fsic/dut/U_USER_SUBSYS0/U_USRPRJ0/rd_state was not found in the design.
WARNING: Simulation object /tb_fsic/dut/U_USER_SUBSYS0/U_USRPRJ0/rd_next_state was not found in the design.
WARNING: Simulation object /tb_fsic/dut/U_USER_SUBSYS0/U_USRPRJ0/RegisterData was not found in the design.
WARNING: Simulation object /tb_fsic/dut/U_USER_SUBSYS0/U_USRPRJ0/reg_widthIn was not found in the design.
WARNING: Simulation object /tb_fsic/dut/U_USER_SUBSYS0/U_USRPRJ0/reg_heightIn was not found in the design.
WARNING: Simulation object /tb_fsic/dut/U_USER_SUBSYS0/U_USRPRJ0/reg_sw_in was not found in the design.
WARNING: Simulation object /tb_fsic/dut/U_USER_SUBSYS0/U_USRPRJ0/reg_rst was not found in the design.
WARNING: Simulation object /tb_fsic/dut/U_USER_SUBSYS0/U_USRPRJ0/crc32_stream_in was not found in the design.
WARNING: Simulation object /tb_fsic/dut/U_USER_SUBSYS0/U_USRPRJ0/crc32_stream_out was not found in the design.
WARNING: Simulation object /tb_fsic/dut/U_USER_SUBSYS0/U_USRPRJ0/reg_crc32_stream_in was not found in the design.
WARNING: Simulation object /tb_fsic/dut/U_USER_SUBSYS0/U_USRPRJ0/reg_crc32_stream_out was not found in the design.
WARNING: Simulation object /tb_fsic/dut/U_USER_SUBSYS0/U_USRPRJ0/awvalid_in was not found in the design.
WARNING: Simulation object /tb_fsic/dut/U_USER_SUBSYS0/U_USRPRJ0/wvalid_in was not found in the design.
WARNING: Simulation object /tb_fsic/dut/U_USER_SUBSYS0/U_USRPRJ0/awready_out was not found in the design.
WARNING: Simulation object /tb_fsic/dut/U_USER_SUBSYS0/U_USRPRJ0/wready_out was not found in the design.
WARNING: Simulation object /tb_fsic/dut/AXIS_SW0/as_up_tvalid_reg was not found in the design.
WARNING: Simulation object /tb_fsic/dut/AXIS_SW0/pre_rd_ptr_reg was not found in the design.
WARNING: Simulation object /tb_fsic/dut/AXIS_SW0/as_up_tvalid_reg was not found in the design.
WARNING: Simulation object /tb_fsic/dut/AXIS_SW0/as_aa_tvalid_reg was not found in the design.
WARNING: Simulation object /tb_fsic/dut/AXIS_SW0/delaynext was not found in the design.
WARNING: Simulation object /tb_fsic/dut/AXIS_SW0/pre_m_axis was not found in the design.
source log_wave.tcl
## log_wave -quiet -verbose -recursive *
## run all

++++++++++ Test 1: Initialize FIR from SoC side ++++++++++
test0: initialization
SoC & FPGA reset
                 140=> soc POR Assert
                 140=> fpga POR Assert
                 140=> fpga reset Assert
                 180=> soc POR De-Assert
                 180=> fpga POR De-Assert
                 220=> fpga reset De-Assert
                 285=> fpga_as_to_is_init done
                 325=> fpga_cfg_write : fpga_axi_awaddr=0000, fpga_axi_awvalid=1, fpga_axi_awready=1, fpga_axi_wdata=00000001, axi_wstrb=1, fpga_axi_wvalid=1, fpga_axi_wready=1
                 525=> soc_is_cfg_write : wbs_adr=30003000, wbs_sel=0001, wbs_wdata=00000001
                 525=> soc rxen_ctl=1
                 525=> fpga rxen_ctl=1
                 965=> fpga_cfg_write : fpga_axi_awaddr=0000, fpga_axi_awvalid=1, fpga_axi_awready=1, fpga_axi_wdata=00000003, axi_wstrb=1, fpga_axi_wvalid=1, fpga_axi_wready=1
                1125=> soc_is_cfg_write : wbs_adr=30003000, wbs_sel=0001, wbs_wdata=00000003
                1125=> soc txen_ctl=1
                1125=> fpga txen_ctl=1
                1765=> soc_up_cfg_read : wbs_adr=30000000, wbs_sel=1111
                1765=> soc wishbone read data result : send soc_cfg_read_event
                1765=> soc_up_cfg_read : got soc_cfg_read_event
                2045=> soc_up_cfg_write : wbs_adr=30000010, wbs_sel=1111, wbs_wdata=00000040
                2325=> soc_up_cfg_write : wbs_adr=30000020, wbs_sel=1111, wbs_wdata=00000000
                2605=> soc_up_cfg_write : wbs_adr=30000024, wbs_sel=1111, wbs_wdata=fffffff6
                2885=> soc_up_cfg_write : wbs_adr=30000028, wbs_sel=1111, wbs_wdata=fffffff7
                3165=> soc_up_cfg_write : wbs_adr=3000002c, wbs_sel=1111, wbs_wdata=00000017
                3445=> soc_up_cfg_write : wbs_adr=30000030, wbs_sel=1111, wbs_wdata=00000038
                3725=> soc_up_cfg_write : wbs_adr=30000034, wbs_sel=1111, wbs_wdata=0000003f
                4005=> soc_up_cfg_write : wbs_adr=30000038, wbs_sel=1111, wbs_wdata=00000038
                4285=> soc_up_cfg_write : wbs_adr=3000003c, wbs_sel=1111, wbs_wdata=00000017
                4565=> soc_up_cfg_write : wbs_adr=30000040, wbs_sel=1111, wbs_wdata=fffffff7
                4845=> soc_up_cfg_write : wbs_adr=30000044, wbs_sel=1111, wbs_wdata=fffffff6
                5125=> soc_up_cfg_write : wbs_adr=30000048, wbs_sel=1111, wbs_wdata=00000000
                5365=> soc_up_cfg_read : wbs_adr=30000010, wbs_sel=1111
                5365=> soc wishbone read data result : send soc_cfg_read_event
                5365=> soc_up_cfg_read : got soc_cfg_read_event
                5365=> SoC configuration check: [PASS] cfg_read_data_expect_value=00000040, cfg_read_data_captured=00000040
-----------------
                5645=> soc_up_cfg_read : wbs_adr=30000020, wbs_sel=1111
                5645=> soc wishbone read data result : send soc_cfg_read_event
                5645=> soc_up_cfg_read : got soc_cfg_read_event
                5645=> SoC configuration check: [PASS] cfg_read_data_expect_value=00000000, cfg_read_data_captured=00000000
-----------------
                5925=> soc_up_cfg_read : wbs_adr=30000024, wbs_sel=1111
                5925=> soc wishbone read data result : send soc_cfg_read_event
                5925=> soc_up_cfg_read : got soc_cfg_read_event
                5925=> SoC configuration check: [PASS] cfg_read_data_expect_value=fffffff6, cfg_read_data_captured=fffffff6
-----------------
                6205=> soc_up_cfg_read : wbs_adr=30000028, wbs_sel=1111
                6205=> soc wishbone read data result : send soc_cfg_read_event
                6205=> soc_up_cfg_read : got soc_cfg_read_event
                6205=> SoC configuration check: [PASS] cfg_read_data_expect_value=fffffff7, cfg_read_data_captured=fffffff7
-----------------
                6485=> soc_up_cfg_read : wbs_adr=3000002c, wbs_sel=1111
                6485=> soc wishbone read data result : send soc_cfg_read_event
                6485=> soc_up_cfg_read : got soc_cfg_read_event
                6485=> SoC configuration check: [PASS] cfg_read_data_expect_value=00000017, cfg_read_data_captured=00000017
-----------------
                6765=> soc_up_cfg_read : wbs_adr=30000030, wbs_sel=1111
                6765=> soc wishbone read data result : send soc_cfg_read_event
                6765=> soc_up_cfg_read : got soc_cfg_read_event
                6765=> SoC configuration check: [PASS] cfg_read_data_expect_value=00000038, cfg_read_data_captured=00000038
-----------------
                7045=> soc_up_cfg_read : wbs_adr=30000034, wbs_sel=1111
                7045=> soc wishbone read data result : send soc_cfg_read_event
                7045=> soc_up_cfg_read : got soc_cfg_read_event
                7045=> SoC configuration check: [PASS] cfg_read_data_expect_value=0000003f, cfg_read_data_captured=0000003f
-----------------
                7325=> soc_up_cfg_read : wbs_adr=30000038, wbs_sel=1111
                7325=> soc wishbone read data result : send soc_cfg_read_event
                7325=> soc_up_cfg_read : got soc_cfg_read_event
                7325=> SoC configuration check: [PASS] cfg_read_data_expect_value=00000038, cfg_read_data_captured=00000038
-----------------
                7605=> soc_up_cfg_read : wbs_adr=3000003c, wbs_sel=1111
                7605=> soc wishbone read data result : send soc_cfg_read_event
                7605=> soc_up_cfg_read : got soc_cfg_read_event
                7605=> SoC configuration check: [PASS] cfg_read_data_expect_value=00000017, cfg_read_data_captured=00000017
-----------------
                7885=> soc_up_cfg_read : wbs_adr=30000040, wbs_sel=1111
                7885=> soc wishbone read data result : send soc_cfg_read_event
                7885=> soc_up_cfg_read : got soc_cfg_read_event
                7885=> SoC configuration check: [PASS] cfg_read_data_expect_value=fffffff7, cfg_read_data_captured=fffffff7
-----------------
                8165=> soc_up_cfg_read : wbs_adr=30000044, wbs_sel=1111
                8165=> soc wishbone read data result : send soc_cfg_read_event
                8165=> soc_up_cfg_read : got soc_cfg_read_event
                8165=> SoC configuration check: [PASS] cfg_read_data_expect_value=fffffff6, cfg_read_data_captured=fffffff6
-----------------
                8445=> soc_up_cfg_read : wbs_adr=30000048, wbs_sel=1111
                8445=> soc wishbone read data result : send soc_cfg_read_event
                8445=> soc_up_cfg_read : got soc_cfg_read_event
                8445=> SoC configuration check: [PASS] cfg_read_data_expect_value=00000000, cfg_read_data_captured=00000000
-----------------
 Start FIR engine
                8725=> soc_up_cfg_write : wbs_adr=30000000, wbs_sel=1111, wbs_wdata=00000001
                9045=> soc_aa_cfg_write : wbs_adr=30002000, wbs_sel=1111, wbs_wdata=5a5a5a5a
                9525=> get soc_to_fpga_mailbox_write_addr_captured be : soc_to_fpga_mailbox_write_addr_captured =xxxxxxxx, fpga_is_as_tdata=f0002000
                9525=> get soc_to_fpga_mailbox_write_addr_captured af : soc_to_fpga_mailbox_write_addr_captured =f0002000, fpga_is_as_tdata=f0002000
                9765=> get soc_to_fpga_mailbox_write_data_captured be : soc_to_fpga_mailbox_write_data_captured =xxxxxxxx, fpga_is_as_tdata=5a5a5a5a
                9765=> get soc_to_fpga_mailbox_write_data_captured af : soc_to_fpga_mailbox_write_data_captured =5a5a5a5a, fpga_is_as_tdata=5a5a5a5a
                9765=> soc_to_fpga_mailbox_write_data_captured : send soc_to_fpga_mailbox_write_event
                9765=> got soc_to_fpga_mailbox_write_event
                9765=> [PASS] soc_to_fpga_mailbox_write_addr_expect_value=0002000, soc_to_fpga_mailbox_write_addr_captured[27:0]=0002000
                9765=> [PASS] soc_to_fpga_mailbox_write_addr_BE_expect_value=f, soc_to_fpga_mailbox_write_addr_captured[31:28]=f
                9765=> [PASS] soc_to_fpga_mailbox_write_data_expect_value=5a5a5a5a, soc_to_fpga_mailbox_write_data_captured=5a5a5a5a
-----------------
Call task test1_fpga_axis_req()
                9805=> fpga_axis_req send data, fpga_as_is_tupsb = 00000, fpga_as_is_tstrb = 0000, fpga_as_is_tkeep = 0000, fpga_as_is_tlast = 0, fpga_as_is_tdata = 00000000
                9845=> fpga_axis_req send data, fpga_as_is_tupsb = 00001, fpga_as_is_tstrb = 0000, fpga_as_is_tkeep = 0000, fpga_as_is_tlast = 0, fpga_as_is_tdata = 00000001
                9885=> fpga_axis_req send data, fpga_as_is_tupsb = 00010, fpga_as_is_tstrb = 0000, fpga_as_is_tkeep = 0000, fpga_as_is_tlast = 0, fpga_as_is_tdata = 00000002
                9925=> fpga_axis_req send data, fpga_as_is_tupsb = 00011, fpga_as_is_tstrb = 0000, fpga_as_is_tkeep = 0000, fpga_as_is_tlast = 0, fpga_as_is_tdata = 00000003
                9965=> fpga_axis_req send data, fpga_as_is_tupsb = 00100, fpga_as_is_tstrb = 0000, fpga_as_is_tkeep = 0000, fpga_as_is_tlast = 0, fpga_as_is_tdata = 00000004
               10005=> fpga_axis_req send data, fpga_as_is_tupsb = 00101, fpga_as_is_tstrb = 0000, fpga_as_is_tkeep = 0000, fpga_as_is_tlast = 0, fpga_as_is_tdata = 00000005
               10045=> fpga_axis_req send data, fpga_as_is_tupsb = 00110, fpga_as_is_tstrb = 0000, fpga_as_is_tkeep = 0000, fpga_as_is_tlast = 0, fpga_as_is_tdata = 00000006
               10085=> fpga_axis_req send data, fpga_as_is_tupsb = 00111, fpga_as_is_tstrb = 0000, fpga_as_is_tkeep = 0000, fpga_as_is_tlast = 0, fpga_as_is_tdata = 00000007
               10125=> fpga_axis_req send data, fpga_as_is_tupsb = 01000, fpga_as_is_tstrb = 0000, fpga_as_is_tkeep = 0000, fpga_as_is_tlast = 0, fpga_as_is_tdata = 00000008
               10165=> fpga_axis_req send data, fpga_as_is_tupsb = 01001, fpga_as_is_tstrb = 0000, fpga_as_is_tkeep = 0000, fpga_as_is_tlast = 0, fpga_as_is_tdata = 00000009
               10205=> fpga_axis_req send data, fpga_as_is_tupsb = 01010, fpga_as_is_tstrb = 0000, fpga_as_is_tkeep = 0000, fpga_as_is_tlast = 0, fpga_as_is_tdata = 0000000a
               10245=> fpga_axis_req send data, fpga_as_is_tupsb = 01011, fpga_as_is_tstrb = 0000, fpga_as_is_tkeep = 0000, fpga_as_is_tlast = 0, fpga_as_is_tdata = 0000000b
               10285=> fpga_axis_req send data, fpga_as_is_tupsb = 01100, fpga_as_is_tstrb = 0000, fpga_as_is_tkeep = 0000, fpga_as_is_tlast = 0, fpga_as_is_tdata = 0000000c
               10325=> fpga_axis_req send data, fpga_as_is_tupsb = 01101, fpga_as_is_tstrb = 0000, fpga_as_is_tkeep = 0000, fpga_as_is_tlast = 0, fpga_as_is_tdata = 0000000d
               10365=> fpga_axis_req send data, fpga_as_is_tupsb = 01110, fpga_as_is_tstrb = 0000, fpga_as_is_tkeep = 0000, fpga_as_is_tlast = 0, fpga_as_is_tdata = 0000000e
               10405=> fpga_axis_req send data, fpga_as_is_tupsb = 01111, fpga_as_is_tstrb = 0000, fpga_as_is_tkeep = 0000, fpga_as_is_tlast = 0, fpga_as_is_tdata = 0000000f
               10445=> fpga_axis_req send data, fpga_as_is_tupsb = 10000, fpga_as_is_tstrb = 0000, fpga_as_is_tkeep = 0000, fpga_as_is_tlast = 0, fpga_as_is_tdata = 00000010
               10725=> get soc_to_fpga_axis be : soc_to_fpga_axis_captured_count=  0,  soc_to_fpga_axis_captured[  0] =xxxxxxxxxxxx, fpga_is_as_tupsb=00, fpga_is_as_tstrb=0, fpga_is_as_tkeep=0 , fpga_is_as_tlast=0, fpga_is_as_tdata=00000000
               10725=> get soc_to_fpga_axis af : soc_to_fpga_axis_captured_count=  0,  soc_to_fpga_axis_captured[  0] =000000000000, fpga_is_as_tupsb=00, fpga_is_as_tstrb=0, fpga_is_as_tkeep=0 , fpga_is_as_tlast=0, fpga_is_as_tdata=00000000
               11285=> get soc_to_fpga_axis be : soc_to_fpga_axis_captured_count=  1,  soc_to_fpga_axis_captured[  1] =xxxxxxxxxxxx, fpga_is_as_tupsb=01, fpga_is_as_tstrb=0, fpga_is_as_tkeep=0 , fpga_is_as_tlast=0, fpga_is_as_tdata=00000000
               11285=> get soc_to_fpga_axis af : soc_to_fpga_axis_captured_count=  1,  soc_to_fpga_axis_captured[  1] =020000000000, fpga_is_as_tupsb=01, fpga_is_as_tstrb=0, fpga_is_as_tkeep=0 , fpga_is_as_tlast=0, fpga_is_as_tdata=00000000
               11845=> get soc_to_fpga_axis be : soc_to_fpga_axis_captured_count=  2,  soc_to_fpga_axis_captured[  2] =xxxxxxxxxxxx, fpga_is_as_tupsb=02, fpga_is_as_tstrb=0, fpga_is_as_tkeep=0 , fpga_is_as_tlast=0, fpga_is_as_tdata=fffffff6
               11845=> get soc_to_fpga_axis af : soc_to_fpga_axis_captured_count=  2,  soc_to_fpga_axis_captured[  2] =0400fffffff6, fpga_is_as_tupsb=02, fpga_is_as_tstrb=0, fpga_is_as_tkeep=0 , fpga_is_as_tlast=0, fpga_is_as_tdata=fffffff6
               12405=> get soc_to_fpga_axis be : soc_to_fpga_axis_captured_count=  3,  soc_to_fpga_axis_captured[  3] =xxxxxxxxxxxx, fpga_is_as_tupsb=03, fpga_is_as_tstrb=0, fpga_is_as_tkeep=0 , fpga_is_as_tlast=0, fpga_is_as_tdata=ffffffe3
               12405=> get soc_to_fpga_axis af : soc_to_fpga_axis_captured_count=  3,  soc_to_fpga_axis_captured[  3] =0600ffffffe3, fpga_is_as_tupsb=03, fpga_is_as_tstrb=0, fpga_is_as_tkeep=0 , fpga_is_as_tlast=0, fpga_is_as_tdata=ffffffe3
               12965=> get soc_to_fpga_axis be : soc_to_fpga_axis_captured_count=  4,  soc_to_fpga_axis_captured[  4] =xxxxxxxxxxxx, fpga_is_as_tupsb=04, fpga_is_as_tstrb=0, fpga_is_as_tkeep=0 , fpga_is_as_tlast=0, fpga_is_as_tdata=ffffffe7
               12965=> get soc_to_fpga_axis af : soc_to_fpga_axis_captured_count=  4,  soc_to_fpga_axis_captured[  4] =0800ffffffe7, fpga_is_as_tupsb=04, fpga_is_as_tstrb=0, fpga_is_as_tkeep=0 , fpga_is_as_tlast=0, fpga_is_as_tdata=ffffffe7
               13525=> get soc_to_fpga_axis be : soc_to_fpga_axis_captured_count=  5,  soc_to_fpga_axis_captured[  5] =xxxxxxxxxxxx, fpga_is_as_tupsb=05, fpga_is_as_tstrb=0, fpga_is_as_tkeep=0 , fpga_is_as_tlast=0, fpga_is_as_tdata=00000023
               13525=> get soc_to_fpga_axis af : soc_to_fpga_axis_captured_count=  5,  soc_to_fpga_axis_captured[  5] =0a0000000023, fpga_is_as_tupsb=05, fpga_is_as_tstrb=0, fpga_is_as_tkeep=0 , fpga_is_as_tlast=0, fpga_is_as_tdata=00000023
               14085=> get soc_to_fpga_axis be : soc_to_fpga_axis_captured_count=  6,  soc_to_fpga_axis_captured[  6] =xxxxxxxxxxxx, fpga_is_as_tupsb=06, fpga_is_as_tstrb=0, fpga_is_as_tkeep=0 , fpga_is_as_tlast=0, fpga_is_as_tdata=0000009e
               14085=> get soc_to_fpga_axis af : soc_to_fpga_axis_captured_count=  6,  soc_to_fpga_axis_captured[  6] =0c000000009e, fpga_is_as_tupsb=06, fpga_is_as_tstrb=0, fpga_is_as_tkeep=0 , fpga_is_as_tlast=0, fpga_is_as_tdata=0000009e
               14645=> get soc_to_fpga_axis be : soc_to_fpga_axis_captured_count=  7,  soc_to_fpga_axis_captured[  7] =xxxxxxxxxxxx, fpga_is_as_tupsb=07, fpga_is_as_tstrb=0, fpga_is_as_tkeep=0 , fpga_is_as_tlast=0, fpga_is_as_tdata=00000151
               14645=> get soc_to_fpga_axis af : soc_to_fpga_axis_captured_count=  7,  soc_to_fpga_axis_captured[  7] =0e0000000151, fpga_is_as_tupsb=07, fpga_is_as_tstrb=0, fpga_is_as_tkeep=0 , fpga_is_as_tlast=0, fpga_is_as_tdata=00000151
               15205=> get soc_to_fpga_axis be : soc_to_fpga_axis_captured_count=  8,  soc_to_fpga_axis_captured[  8] =xxxxxxxxxxxx, fpga_is_as_tupsb=08, fpga_is_as_tstrb=0, fpga_is_as_tkeep=0 , fpga_is_as_tlast=0, fpga_is_as_tdata=0000021b
               15205=> get soc_to_fpga_axis af : soc_to_fpga_axis_captured_count=  8,  soc_to_fpga_axis_captured[  8] =10000000021b, fpga_is_as_tupsb=08, fpga_is_as_tstrb=0, fpga_is_as_tkeep=0 , fpga_is_as_tlast=0, fpga_is_as_tdata=0000021b
               15325=> fpga_axis_req send data, fpga_as_is_tupsb = 10001, fpga_as_is_tstrb = 0000, fpga_as_is_tkeep = 0000, fpga_as_is_tlast = 0, fpga_as_is_tdata = 00000011
               15365=> fpga_axis_req send data, fpga_as_is_tupsb = 10010, fpga_as_is_tstrb = 0000, fpga_as_is_tkeep = 0000, fpga_as_is_tlast = 0, fpga_as_is_tdata = 00000012
               15405=> fpga_axis_req send data, fpga_as_is_tupsb = 10011, fpga_as_is_tstrb = 0000, fpga_as_is_tkeep = 0000, fpga_as_is_tlast = 0, fpga_as_is_tdata = 00000013
               15445=> fpga_axis_req send data, fpga_as_is_tupsb = 10100, fpga_as_is_tstrb = 0000, fpga_as_is_tkeep = 0000, fpga_as_is_tlast = 0, fpga_as_is_tdata = 00000014
               15485=> fpga_axis_req send data, fpga_as_is_tupsb = 10101, fpga_as_is_tstrb = 0000, fpga_as_is_tkeep = 0000, fpga_as_is_tlast = 0, fpga_as_is_tdata = 00000015
               15525=> fpga_axis_req send data, fpga_as_is_tupsb = 10110, fpga_as_is_tstrb = 0000, fpga_as_is_tkeep = 0000, fpga_as_is_tlast = 0, fpga_as_is_tdata = 00000016
               15565=> fpga_axis_req send data, fpga_as_is_tupsb = 10111, fpga_as_is_tstrb = 0000, fpga_as_is_tkeep = 0000, fpga_as_is_tlast = 0, fpga_as_is_tdata = 00000017
               15605=> fpga_axis_req send data, fpga_as_is_tupsb = 11000, fpga_as_is_tstrb = 0000, fpga_as_is_tkeep = 0000, fpga_as_is_tlast = 0, fpga_as_is_tdata = 00000018
               15645=> fpga_axis_req send data, fpga_as_is_tupsb = 11001, fpga_as_is_tstrb = 0000, fpga_as_is_tkeep = 0000, fpga_as_is_tlast = 0, fpga_as_is_tdata = 00000019
               15765=> get soc_to_fpga_axis be : soc_to_fpga_axis_captured_count=  9,  soc_to_fpga_axis_captured[  9] =xxxxxxxxxxxx, fpga_is_as_tupsb=09, fpga_is_as_tstrb=0, fpga_is_as_tkeep=0 , fpga_is_as_tlast=0, fpga_is_as_tdata=000002dc
               15765=> get soc_to_fpga_axis af : soc_to_fpga_axis_captured_count=  9,  soc_to_fpga_axis_captured[  9] =1200000002dc, fpga_is_as_tupsb=09, fpga_is_as_tstrb=0, fpga_is_as_tkeep=0 , fpga_is_as_tlast=0, fpga_is_as_tdata=000002dc
               16325=> get soc_to_fpga_axis be : soc_to_fpga_axis_captured_count= 10,  soc_to_fpga_axis_captured[ 10] =xxxxxxxxxxxx, fpga_is_as_tupsb=0a, fpga_is_as_tstrb=0, fpga_is_as_tkeep=0 , fpga_is_as_tlast=0, fpga_is_as_tdata=00000393
               16325=> get soc_to_fpga_axis af : soc_to_fpga_axis_captured_count= 10,  soc_to_fpga_axis_captured[ 10] =140000000393, fpga_is_as_tupsb=0a, fpga_is_as_tstrb=0, fpga_is_as_tkeep=0 , fpga_is_as_tlast=0, fpga_is_as_tdata=00000393
               16885=> get soc_to_fpga_axis be : soc_to_fpga_axis_captured_count= 11,  soc_to_fpga_axis_captured[ 11] =xxxxxxxxxxxx, fpga_is_as_tupsb=0b, fpga_is_as_tstrb=0, fpga_is_as_tkeep=0 , fpga_is_as_tlast=0, fpga_is_as_tdata=0000044a
               16885=> get soc_to_fpga_axis af : soc_to_fpga_axis_captured_count= 11,  soc_to_fpga_axis_captured[ 11] =16000000044a, fpga_is_as_tupsb=0b, fpga_is_as_tstrb=0, fpga_is_as_tkeep=0 , fpga_is_as_tlast=0, fpga_is_as_tdata=0000044a
               17445=> get soc_to_fpga_axis be : soc_to_fpga_axis_captured_count= 12,  soc_to_fpga_axis_captured[ 12] =xxxxxxxxxxxx, fpga_is_as_tupsb=0c, fpga_is_as_tstrb=0, fpga_is_as_tkeep=0 , fpga_is_as_tlast=0, fpga_is_as_tdata=00000501
               17445=> get soc_to_fpga_axis af : soc_to_fpga_axis_captured_count= 12,  soc_to_fpga_axis_captured[ 12] =180000000501, fpga_is_as_tupsb=0c, fpga_is_as_tstrb=0, fpga_is_as_tkeep=0 , fpga_is_as_tlast=0, fpga_is_as_tdata=00000501
               18005=> get soc_to_fpga_axis be : soc_to_fpga_axis_captured_count= 13,  soc_to_fpga_axis_captured[ 13] =xxxxxxxxxxxx, fpga_is_as_tupsb=0d, fpga_is_as_tstrb=0, fpga_is_as_tkeep=0 , fpga_is_as_tlast=0, fpga_is_as_tdata=000005b8
               18005=> get soc_to_fpga_axis af : soc_to_fpga_axis_captured_count= 13,  soc_to_fpga_axis_captured[ 13] =1a00000005b8, fpga_is_as_tupsb=0d, fpga_is_as_tstrb=0, fpga_is_as_tkeep=0 , fpga_is_as_tlast=0, fpga_is_as_tdata=000005b8
               18565=> get soc_to_fpga_axis be : soc_to_fpga_axis_captured_count= 14,  soc_to_fpga_axis_captured[ 14] =xxxxxxxxxxxx, fpga_is_as_tupsb=0e, fpga_is_as_tstrb=0, fpga_is_as_tkeep=0 , fpga_is_as_tlast=0, fpga_is_as_tdata=0000066f
               18565=> get soc_to_fpga_axis af : soc_to_fpga_axis_captured_count= 14,  soc_to_fpga_axis_captured[ 14] =1c000000066f, fpga_is_as_tupsb=0e, fpga_is_as_tstrb=0, fpga_is_as_tkeep=0 , fpga_is_as_tlast=0, fpga_is_as_tdata=0000066f
               19125=> get soc_to_fpga_axis be : soc_to_fpga_axis_captured_count= 15,  soc_to_fpga_axis_captured[ 15] =xxxxxxxxxxxx, fpga_is_as_tupsb=0f, fpga_is_as_tstrb=0, fpga_is_as_tkeep=0 , fpga_is_as_tlast=0, fpga_is_as_tdata=00000726
               19125=> get soc_to_fpga_axis af : soc_to_fpga_axis_captured_count= 15,  soc_to_fpga_axis_captured[ 15] =1e0000000726, fpga_is_as_tupsb=0f, fpga_is_as_tstrb=0, fpga_is_as_tkeep=0 , fpga_is_as_tlast=0, fpga_is_as_tdata=00000726
               19685=> get soc_to_fpga_axis be : soc_to_fpga_axis_captured_count= 16,  soc_to_fpga_axis_captured[ 16] =xxxxxxxxxxxx, fpga_is_as_tupsb=10, fpga_is_as_tstrb=0, fpga_is_as_tkeep=0 , fpga_is_as_tlast=0, fpga_is_as_tdata=000007dd
               19685=> get soc_to_fpga_axis af : soc_to_fpga_axis_captured_count= 16,  soc_to_fpga_axis_captured[ 16] =2000000007dd, fpga_is_as_tupsb=10, fpga_is_as_tstrb=0, fpga_is_as_tkeep=0 , fpga_is_as_tlast=0, fpga_is_as_tdata=000007dd
               20245=> get soc_to_fpga_axis be : soc_to_fpga_axis_captured_count= 17,  soc_to_fpga_axis_captured[ 17] =xxxxxxxxxxxx, fpga_is_as_tupsb=11, fpga_is_as_tstrb=0, fpga_is_as_tkeep=0 , fpga_is_as_tlast=0, fpga_is_as_tdata=00000894
               20245=> get soc_to_fpga_axis af : soc_to_fpga_axis_captured_count= 17,  soc_to_fpga_axis_captured[ 17] =220000000894, fpga_is_as_tupsb=11, fpga_is_as_tstrb=0, fpga_is_as_tkeep=0 , fpga_is_as_tlast=0, fpga_is_as_tdata=00000894
               20365=> fpga_axis_req send data, fpga_as_is_tupsb = 11010, fpga_as_is_tstrb = 0000, fpga_as_is_tkeep = 0000, fpga_as_is_tlast = 0, fpga_as_is_tdata = 0000001a
               20405=> fpga_axis_req send data, fpga_as_is_tupsb = 11011, fpga_as_is_tstrb = 0000, fpga_as_is_tkeep = 0000, fpga_as_is_tlast = 0, fpga_as_is_tdata = 0000001b
               20445=> fpga_axis_req send data, fpga_as_is_tupsb = 11100, fpga_as_is_tstrb = 0000, fpga_as_is_tkeep = 0000, fpga_as_is_tlast = 0, fpga_as_is_tdata = 0000001c
               20485=> fpga_axis_req send data, fpga_as_is_tupsb = 11101, fpga_as_is_tstrb = 0000, fpga_as_is_tkeep = 0000, fpga_as_is_tlast = 0, fpga_as_is_tdata = 0000001d
               20525=> fpga_axis_req send data, fpga_as_is_tupsb = 11110, fpga_as_is_tstrb = 0000, fpga_as_is_tkeep = 0000, fpga_as_is_tlast = 0, fpga_as_is_tdata = 0000001e
               20565=> fpga_axis_req send data, fpga_as_is_tupsb = 11111, fpga_as_is_tstrb = 0000, fpga_as_is_tkeep = 0000, fpga_as_is_tlast = 0, fpga_as_is_tdata = 0000001f
               20605=> fpga_axis_req send data, fpga_as_is_tupsb = 00000, fpga_as_is_tstrb = 0000, fpga_as_is_tkeep = 0000, fpga_as_is_tlast = 0, fpga_as_is_tdata = 00000020
               20645=> fpga_axis_req send data, fpga_as_is_tupsb = 00001, fpga_as_is_tstrb = 0000, fpga_as_is_tkeep = 0000, fpga_as_is_tlast = 0, fpga_as_is_tdata = 00000021
               20685=> fpga_axis_req send data, fpga_as_is_tupsb = 00010, fpga_as_is_tstrb = 0000, fpga_as_is_tkeep = 0000, fpga_as_is_tlast = 0, fpga_as_is_tdata = 00000022
